{
  "message": "",
  "result": {
    "pageSize": 10,
    "pageNo": 0,
    "totalCount": 57,
    "totalPage": 6,
    "data": [
      {
        "key": 1,
        "no": "No 1",
        "description": "这是一段描述",
        "callNo": 127,
        "status": 2,
        "updatedAt": "1970-06-24 11:51:20",
        "editable": false
      },
      {
        "key": 2,
        "no": "No 2",
        "description": "这是一段描述",
        "callNo": 573,
        "status": 2,
        "updatedAt": "1994-12-11 00:37:35",
        "editable": false
      },
      {
        "key": 3,
        "no": "No 3",
        "description": "这是一段描述",
        "callNo": 869,
        "status": 2,
        "updatedAt": "2013-11-11 08:04:03",
        "editable": false
      },
      {
        "key": 4,
        "no": "No 4",
        "description": "这是一段描述",
        "callNo": 26,
        "status": 2,
        "updatedAt": "1990-11-04 15:41:42",
        "editable": false
      },
      {
        "key": 5,
        "no": "No 5",
        "description": "这是一段描述",
        "callNo": 20,
        "status": 2,
        "updatedAt": "1970-01-05 11:04:56",
        "editable": false
      },
      {
        "key": 6,
        "no": "No 6",
        "description": "这是一段描述",
        "callNo": 675,
        "status": 2,
        "updatedAt": "1983-06-06 04:09:04",
        "editable": false
      },
      {
        "key": 7,
        "no": "No 7",
        "description": "这是一段描述",
        "callNo": 512,
        "status": 3,
        "updatedAt": "1996-08-26 21:47:44",
        "editable": false
      },
      {
        "key": 8,
        "no": "No 8",
        "description": "这是一段描述",
        "callNo": 962,
        "status": 2,
        "updatedAt": "2004-08-15 23:15:22",
        "editable": false
      },
      {
        "key": 9,
        "no": "No 9",
        "description": "这是一段描述",
        "callNo": 318,
        "status": 3,
        "updatedAt": "1988-08-10 14:36:35",
        "editable": false
      },
      {
        "key": 10,
        "no": "No 10",
        "description": "这是一段描述",
        "callNo": 789,
        "status": 0,
        "updatedAt": "1988-12-27 23:39:41",
        "editable": false
      }
    ]
  },
  "status": 200,
  "timestamp": 1534955098193
}